Danish slave trade development
…
Installing and renaming the data

read_csv("taden.csv")

## Rows: 412 Columns: 46
## ── Column specification ────────────────────────────────────────────────────────
## Delimiter: ","
## chr (25): Name of vessel, Outcome of voyage if ship captured, Flag of vessel...
## dbl (21): Voyage ID, Year arrived with captives, Total disembarked (IMP), To...
## 
## ℹ Use `spec()` to retrieve the full column specification for this data.
## ℹ Specify the column types or set `show_col_types = FALSE` to quiet this message.

## # A tibble: 412 × 46
##    `Voyage ID` `Name of vessel`    Year arrived with ca…¹ Total disembarked (I…²
##          <dbl> <chr>                                <dbl>                  <dbl>
##  1         112 Maria                                 1820                    160
##  2        1603 Esperança                             1837                    304
##  3        1970 Margareth                             1839                    444
##  4        2182 0                                     1842                    400
##  5        2183 0                                     1842                    350
##  6        2217 0                                     1841                    350
##  7        2329 Joseph                                1822                    188
##  8        4270 Saint Olof                            1858                      0
##  9        7548 Diana                                 1810                     84
## 10       11385 S Jansburgh (a) Jo…                   1657                    259
## # ℹ 402 more rows
## # ℹ abbreviated names: ¹​`Year arrived with captives`,
## #   ²​`Total disembarked (IMP)`
## # ℹ 42 more variables: `Total embarked (IMP)` <dbl>,
## #   `Duration of captives' crossing (in days)` <dbl>,
## #   `Voyage duration, homeport to disembarkation (in days)` <dbl>,
## #   `Crew at first landing of captives` <dbl>, `Crew at voyage outset` <dbl>, …

danish_slave_trade <- read_csv("taden.csv")

## Rows: 412 Columns: 46
## ── Column specification ────────────────────────────────────────────────────────
## Delimiter: ","
## chr (25): Name of vessel, Outcome of voyage if ship captured, Flag of vessel...
## dbl (21): Voyage ID, Year arrived with captives, Total disembarked (IMP), To...
## 
## ℹ Use `spec()` to retrieve the full column specification for this data.
## ℹ Specify the column types or set `show_col_types = FALSE` to quiet this message.

danish_slave_trade

## # A tibble: 412 × 46
##    `Voyage ID` `Name of vessel`    Year arrived with ca…¹ Total disembarked (I…²
##          <dbl> <chr>                                <dbl>                  <dbl>
##  1         112 Maria                                 1820                    160
##  2        1603 Esperança                             1837                    304
##  3        1970 Margareth                             1839                    444
##  4        2182 0                                     1842                    400
##  5        2183 0                                     1842                    350
##  6        2217 0                                     1841                    350
##  7        2329 Joseph                                1822                    188
##  8        4270 Saint Olof                            1858                      0
##  9        7548 Diana                                 1810                     84
## 10       11385 S Jansburgh (a) Jo…                   1657                    259
## # ℹ 402 more rows
## # ℹ abbreviated names: ¹​`Year arrived with captives`,
## #   ²​`Total disembarked (IMP)`
## # ℹ 42 more variables: `Total embarked (IMP)` <dbl>,
## #   `Duration of captives' crossing (in days)` <dbl>,
## #   `Voyage duration, homeport to disembarkation (in days)` <dbl>,
## #   `Crew at first landing of captives` <dbl>, `Crew at voyage outset` <dbl>, …
…
unique(danish_slave_trade)

## # A tibble: 412 × 46
##    `Voyage ID` `Name of vessel`    Year arrived with ca…¹ Total disembarked (I…²
##          <dbl> <chr>                                <dbl>                  <dbl>
##  1         112 Maria                                 1820                    160
##  2        1603 Esperança                             1837                    304
##  3        1970 Margareth                             1839                    444
##  4        2182 0                                     1842                    400
##  5        2183 0                                     1842                    350
##  6        2217 0                                     1841                    350
##  7        2329 Joseph                                1822                    188
##  8        4270 Saint Olof                            1858                      0
##  9        7548 Diana                                 1810                     84
## 10       11385 S Jansburgh (a) Jo…                   1657                    259
## # ℹ 402 more rows
## # ℹ abbreviated names: ¹​`Year arrived with captives`,
## #   ²​`Total disembarked (IMP)`
## # ℹ 42 more variables: `Total embarked (IMP)` <dbl>,
## #   `Duration of captives' crossing (in days)` <dbl>,
## #   `Voyage duration, homeport to disembarkation (in days)` <dbl>,
## #   `Crew at first landing of captives` <dbl>, `Crew at voyage outset` <dbl>, …
…
danish_slave_trade <- danish_slave_trade %>%
  mutate(year = as.numeric(year)) %>%
  filter(!is.na(year))

data_filtered <- danish_slave_trade %>%
  filter(year >= 1606, year <= 1805)

ships_per_year <- danish_slave_trade %>%
  group_by(year) %>%
  summarise(ships = n())

ships_per_year

## # A tibble: 115 × 2
##     year ships
##    <dbl> <int>
##  1  1606     1
##  2  1641     1
##  3  1646     2
##  4  1647     2
##  5  1657     1
##  6  1660     1
##  7  1679     1
##  8  1683     1
##  9  1686     1
## 10  1687     3
## # ℹ 105 more rows
…
